cams:2018년 09월 04일 14시 47분 FROM 210.124.174.240
cams:2018년 09월 04일 14시 50분 FROM 106.255.245.98
cams:2018년 09월 04일 14시 52분 FROM 106.255.245.98
cams:2018년 09월 04일 15시 54분 FROM 210.124.174.240
cams:2018년 09월 04일 16시 33분 FROM 106.255.245.98
cams:2019년 01월 11일 01시 26분 FROM 122.35.247.237
cams:2019년 02월 07일 18시 53분 FROM 210.124.174.92
cams:2019년 04월 17일 00시 37분 FROM 122.35.247.237
cams:2019년 04월 17일 00시 37분 FROM 122.35.247.237
cams:2019년 04월 17일 00시 40분 FROM 210.124.174.92
