<?xml version="1.0" encoding="utf-8" standalone="no"?>
<!DOCTYPE svg PUBLIC "-//W3C//DTD SVG 1.1//EN" "http://www.w3.org/Graphics/SVG/1.1/DTD/svg11.dtd">
<svg version="1.1" id="svgroot" onload="onload_func()" width="700" height="450" xmlns="http://www.w3.org/2000/svg" xmlns:xlink="http://www.w3.org/1999/xlink">
<style type="text/css"><![CDATA[
	.axislabelx{font-family:Tahoma;font-size:10px;text-anchor:middle;cursor:pointer;}
	.axislabely{font-family:Tahoma;font-size:10px;text-anchor:end;}
	.axisline{stroke:#555555;stroke-width:1;stroke-opacity:1;shape-rendering:crispEdges;}
	.assistline{stroke:#E5E5E5;stroke-width:1;stroke-opacity:1;shape-rendering:crispEdges;}
	.interline{stroke-width:1;stroke-opacity:1;fill:none;}

	.indexfill{stroke:none;}
	.indextext{font-family:돋움;font-size:11px;fill:#444444;fill-opacity:1;cursor:pointer;}
	.indexpagingtext{font-family:Tahoma;font-size:10px;fill:#444444;fill-opacity:1;text-anchor:middle;cursor:pointer;}
	.axislabelx:hover, .indextext:hover, .indexpagingtext tspan:hover{opacity:0.7;}
	#monthtitle{font-family:돋움;font-size:11px;fill:#FFFFFF;text-anchor:middle;font-weight:bold;}
	#daytitle{font-family:돋움;font-size:11px;fill:#FFFFFF;text-anchor:middle;}
	.monthline{stroke-width:3;stroke-opacity:1;}
	.dayrect{fill:#CDE2ED;fill-opacity:1;}
	.daytext{font-family:돋움;font-size:11px;fill:#444444;fill-opacity:1;}
	.daymenu{font-family:돋움;font-size:11px;fill:#444444;fill-opacity:1;cursor:pointer;}
]]></style>
<script type="application/ecmascript"><![CDATA[
var selfName = "conngraph.svg";
var svgWidth = 700, svgHeight = 450;
var p;
var xmlHttp;

var catImage, logPath;
var currYear, currMonth, currDay, currMode, currIndex;
var graphRect, indexArea, monthArea;

var arDayTotal, arDayIndiv;
var totalMax, dayMax, timeMax;

var dayOfMonth;
var startidx, finalidx;
var pixelPerDay, distOfUnit;

var indexState;				// fold, expand
var arIndexColor = new Array('#FF0000','#04B300','#004EFF','#FF8E2A','#FFD800','#0000C4','#9800E7','#00ACCB','#FF67C8','#00D5E2','#666666');
var arIndexStr, arIndexDir, arIndexName;
var ixb, ixf, ixPg, ixPnum, ixPunit;

var downKind = 0;			// 0:nothing, 1:indexBack, 2:monthTitleBar, 3:dayTitleBar
var clickX, clickY, idxTrX, idxTrY, monthTrX, monthTrY, dayTrX, dayTrY;
var mouseDrag;

var distOfMUnit;			// month
var monthXY = false;

var arFolder, arTimeStr, arTimeCount, arTimeName;	// day
var timeParsed = false;

function onload_func(){
	p = window.parent;
	console.log(selfName+" : loaded");
	p.graphSvg = this;
	//window.parent.svgLoaded(this);

	clickX = 0;
	clickY = 0;

	document.getElementById("svgroot").setAttribute("onmouseup","mouseup(evt)");
	document.getElementById("svgroot").setAttribute("onmousemove","mousemove(evt)");

	catImage = window.parent.catImage;
	logPath = window.parent.logPath;
	currYear = window.parent.currYear;

	graphRect = new Rectangle(30, 20, 624, 410);
	indexArea = new Area(190, 205);
	monthRect = new Rectangle(20, 35, 565, 245);					// actual drawing area

	setIndexFirst();
	totalMax = 0;
	setXaxis(currYear);

	arDayTotal = new Array();
	arDayIndiv = new Array();

	viewYear();
}

function viewYear(){
	currMode = "year";
	var urlstr = logPath+"/"+currYear+"/"+currYear+catImage+".txt";
	var xmlHttp = new XMLHttpRequest();
	xmlHttp.open("GET", urlstr);
	if(xmlHttp.overrideMimeType) xmlHttp.overrideMimeType("text/plain; charset=utf-8");
	xmlHttp.onreadystatechange = function(){
		if(xmlHttp.readyState !== 4) return;
		if(xmlHttp.status === 200){
			var restr = xmlHttp.responseText.replace(/^\s*|\s*$/g, '');		// front and rear's white space
			var lines = restr.split("\n");
			var alen = lines.length;
			startidx = -1;

			var i;
			var tstr, tdate, ardate, mm, dd, tconn, idx;
			for(i = 0;i < alen;i++){
				tstr = lines[i];
				if(tstr == "") continue;

				arstr = tstr.split("\t");									// date|total|indistr|mtotal|mindistr
				tdate = arstr[0];

				mm = parseInt(tdate.substring(4,6)) - 1;
				dd = parseInt(tdate.substring(6,8)) - 1;

				idx = aridxDate(mm, dd);
				if(startidx == -1) startidx = idx;

				tconn = parseInt(arstr[1]);
				arDayTotal[idx] = tconn;
				if(tconn > totalMax) totalMax = tconn;

				arDayIndiv[idx] = arstr[2];
				set_individual(arstr[2]);
			}
			finalidx = idx;
			//alert(startidx+":"+finalidx);
			setYaxis();
			setInterArea();
			console.log("conngraph.svg : "+urlstr+" : "+xmlHttp.readyState);
		}
		else{
			console.log("[Error] conngraph.svg : : "+urlstr+" : "+xmlHttp.status);
		}
	}
	xmlHttp.send();
}

/* Day */
function viewDay(n){
	currMode = "day";

	document.getElementById("daytitle").textContent = currYear + "년 " + (currMonth+1) + "월 "+n+"일";
	if(document.getElementById("dayArea").getAttribute("visibility") == "hidden"){
		document.getElementById("dayArea").setAttribute("visibility","visible");
	}

	dayTrX = 200;
	dayTrY = 1;

	var interObj = document.getElementById("interDay");
	nodes = interObj.childNodes;
	for(var i = nodes.length-1;i >= 0;i--){
		interObj.removeChild(nodes[i]);
	}

	currDay = n;

	var urlstr = logPath+"/"+currYear+"/log"+catImage+"_"+currYear+digit2(currMonth+1)+digit2(currDay)+".txt";
	var xmlHttp = new XMLHttpRequest();
	xmlHttp.open("GET", urlstr);
	if(xmlHttp.overrideMimeType) xmlHttp.overrideMimeType("text/plain; charset=utf-8");
	xmlHttp.onreadystatechange = function(){
		if(xmlHttp.readyState !== 4) return;
		if(xmlHttp.status === 200){
			var restr = xmlHttp.responseText.replace(/^\s*|\s*$/g, '');		// front and rear's white space
			var lines = restr.split("\n");
			var alen = lines.length;

			dayMax = 0;
			arTimeStr = new Array();
			arFolder = new Array();

			var tstr, arstr, tdir, count;
			for(var i = 0;i < alen;i++){
				tstr = lines[i];
				if(tstr == "") continue;

				arstr = tstr.split("\t");									// kd \t Dir \t time \t addr \t user-agent
				tdir = arstr[1];
				if(arstr[0] == "0") arTimeStr.push(arstr[2].substring(11));

				if(arIndexDir.indexOf(tdir) == -1) continue;

				if(arFolder[tdir] == undefined) arFolder[tdir] = 1;
				else arFolder[tdir]++;

				count = arFolder[tdir];
				if(count > dayMax) dayMax = count;
			}

			day_folder();
			console.log("conngraph.svg : "+urlstr+" : "+xmlHttp.readyState);
		}
		else{
			console.log("[Error] conngraph.svg : : "+urlstr+" : "+xmlHttp.status);
		}
	}
	xmlHttp.send();
}

function set_individual(s){
	if(s == "" || s.indexOf("|") == -1) return;

	var ar = s.split("|");
	var arLen = ar.length - 1;
	var str, sfolder, sconn;
	var pos, tn;
	for(var j = 0;j < arLen;j++){
		str = ar[j];
		pos = str.indexOf(":");
		if(pos > -1){
			sconn = str.substring(pos+1);
			tn = parseInt(sconn);
			if(!tn) tn = 0;
			if(tn > totalMax) totalMax = tn;
		}
	}
}

/* Legend */
function setIndexFirst(){
	indexState = "expand";
	idxTrX = 40;
	idxTrY = 1;

	arIndexStr = window.parent.getIndex();
	ixPunit = 10;
	ixTotal = arIndexStr.length;
	ixPnum = Math.floor((ixTotal-1)/ixPunit) + 1;

	setIndexSecond(1);

	if(arIndexStr.length <= ixPunit){
		indexArea.height -= 16;
		document.getElementById("indexPagingBack").setAttribute("visibility","hidden");
		document.getElementById("indexBack").setAttribute("height", indexArea.height);
	}
	else{
		make_indexPaging();
	}
}
function setIndexSecond(pg){
	arIndexDir = new Array();
	arIndexName = new Array();

	ixPg = pg;
	ixb = (ixPg-1) * ixPunit;
	ixf = (ixPg == ixPnum) ? ixTotal : ixb + ixPunit;

	var indexObj = document.getElementById("indexlist");
	var textObj, textNode, fillObj, arstr, ty;
	var k = 0;
	for(var i = ixb;i < ixf;i++){
		arstr = arIndexStr[i].split("|");
		arIndexDir[k] = arstr[3];
		arIndexName[k] = arstr[2];

		ty = 16*(k+2);
		fillObj = document.createElementNS("http://www.w3.org/2000/svg","rect");
		fillObj.setAttribute("x", 10);
		fillObj.setAttribute("y", ty-5);
		fillObj.setAttribute("width", 30);
		fillObj.setAttribute("height", 5);
		fillObj.setAttribute("fill", arIndexColor[k+1]);
		indexObj.appendChild(fillObj);

		textObj = document.createElementNS("http://www.w3.org/2000/svg","text");
		textObj.setAttribute("x", 45);
		textObj.setAttribute("y", ty+1);
		textObj.setAttribute("class", "indextext");
		textObj.setAttribute("onclick","index_click("+(i+1)+")");
		textNode = document.createTextNode(arstr[2]);
		textObj.appendChild(textNode);
		indexObj.appendChild(textObj);
		k++;
	}
}
function make_indexPaging(){
	if(ixPnum == 1) return;

	var textObj = document.getElementById("indexPagingText");
	var f = Math.floor((ixPg-1)/10 + 1) * 10;

	var tspanObj, textNode;
	if(f > 10){
		tspanObj = document.createElementNS("http://www.w3.org/2000/svg","tspan");
		textNode = document.createTextNode("<-");
		tspanObj.appendChild(textNode);
		tspanObj.setAttribute("onclick", "go_indexPaging("+(f-10)+")");
		textObj.appendChild(tspanObj);
	}
	for(var i = f-9;i <= ixPnum;i++){
		tspanObj = document.createElementNS("http://www.w3.org/2000/svg","tspan");
		textNode = document.createTextNode(i+" ");
		tspanObj.appendChild(textNode);
		tspanObj.setAttribute("onclick", "go_indexPaging("+i+")");
		//tspanObj.setAttribute("dx", 4);
		textObj.appendChild(tspanObj);
		if(i >= f) break;
	}
	if(i < ixPnum){
		tspanObj = document.createElementNS("http://www.w3.org/2000/svg","tspan");
		textNode = document.createTextNode("->");
		tspanObj.appendChild(textNode);
		tspanObj.setAttribute("onclick", "go_indexPaging("+(i+1)+")");
		textObj.appendChild(tspanObj);
	}
}
function refresh_paging(bool){
	var textObj = document.getElementById("indexPagingText");
	var nodes = textObj.childNodes;
	for(var i = nodes.length-1;i >= 0;i--){
		textObj.removeChild(nodes[i]);
	}
	make_indexPaging();
}
function go_indexPaging(pg){
	if(pg == ixPg) return;

	var indexObj = document.getElementById("indexlist");
	var nodes = indexObj.childNodes;
	for(var i = nodes.length-1;i > 3;i--){
		indexObj.removeChild(nodes[i]);
	}

	setIndexSecond(pg);

	var interObj = document.getElementById("interArea");
	nodes = interObj.childNodes;
	for(i = nodes.length-1;i >= 0;i--){
		interObj.removeChild(nodes[i]);
	}

	setInterArea();
	refresh_paging();
}
function index_click(n){
	if(currMode == "year"){
		var interObj = document.getElementById("inter"+n);
		var _visibility = interObj.getAttribute("visibility");

		if(_visibility == "visible") interObj.setAttribute("visibility", "hidden");
		else interObj.setAttribute("visibility", "visible");
	}
	else if(currMode == "month"){
		setInterAreaMonth(n, -1);
	}
}
function index_fold(){
	if(indexState == "expand"){
		document.getElementById("indexBtn").setAttribute("xlink:href","./pix/conngr_expand.png");
		document.getElementById("indexLegendText").setAttribute("visibility","visible");
		document.getElementById("indexlist").setAttribute("visibility","hidden");
		document.getElementById("indexPaging").setAttribute("visibility","hidden");
		document.getElementById("indexBack").setAttribute("height",25);
		indexState = "fold";
	}
	else{
		document.getElementById("indexBtn").setAttribute("xlink:href","./pix/conngr_fold.png");
		document.getElementById("indexLegendText").setAttribute("visibility","hidden");
		document.getElementById("indexlist").setAttribute("visibility","visible");
		document.getElementById("indexPaging").setAttribute("visibility","visible");
		document.getElementById("indexBack").setAttribute("height",indexArea.height);
		indexState = "expand";
	}
}

/* Year */
function setXaxis(yy){
	dayOfMonth = new Array(31,28,31,30,31,30,31,31,30,31,30,31);
	pixelPerDay = graphRect.width / 365;
	if((yy%4 == 0 && yy%100 != 0) || yy%400 == 0){
		dayOfMonth[1] = 29;
		pixelPerDay = graphRect.width / 366;
	}

	var sum = 0;
	var xaxis = document.getElementById("xAxis");
	var textObj, textNode, lineObj, tx;
	for(var i = 0;i < 12;i++){
		tx = graphRect.x + sum*pixelPerDay;
		textObj = document.createElementNS("http://www.w3.org/2000/svg","text");
		textObj.setAttribute("x", tx);
		textObj.setAttribute("y", graphRect.bottom+10);
		textObj.setAttribute("class", "axislabelx");
		textObj.setAttribute("onclick", "viewMonth("+i+")");
		textNode = document.createTextNode(i+1);
		textObj.appendChild(textNode);
		xaxis.appendChild(textObj);

		sum += dayOfMonth[i];
		if(i == 0) continue;

		lineObj = document.createElementNS("http://www.w3.org/2000/svg","line");
		lineObj.setAttribute("x1", tx);
		lineObj.setAttribute("y1", graphRect.y);
		lineObj.setAttribute("x2", tx);
		lineObj.setAttribute("y2", graphRect.bottom-1);
		lineObj.setAttribute("class", "assistline");
		xaxis.appendChild(lineObj);
	}
}
function setYaxis(){
	var numOfScale = 5;
	valPerScale = Math.floor((totalMax-1)/numOfScale) + 1;			// y value per one section
	distOfScale = graphRect.height / numOfScale;					// pixel per one section
	distOfUnit = graphRect.height / (numOfScale*valPerScale);		// pixel per one value

	var yaxis = document.getElementById("yAxis");
	var textObj, textNode, lineObj;
	var ypos = graphRect.bottom - distOfScale;
	for(var i = 0;i < numOfScale;i++){
		textObj = document.createElementNS("http://www.w3.org/2000/svg","text");
		textObj.setAttribute("x", graphRect.x-4);
		textObj.setAttribute("y", ypos+4);
		textObj.setAttribute("class", "axislabely");
		textNode = document.createTextNode((i+1)*valPerScale);
		textObj.appendChild(textNode);
		yaxis.appendChild(textObj);

		lineObj = document.createElementNS("http://www.w3.org/2000/svg","line");
		lineObj.setAttribute("x1", graphRect.x);
		lineObj.setAttribute("y1", ypos);
		lineObj.setAttribute("x2", graphRect.right);
		lineObj.setAttribute("y2", ypos);
		lineObj.setAttribute("class", "assistline");
		yaxis.appendChild(lineObj);

		ypos -= distOfScale;
	}
}
function setInterArea(){
	arIndexPaths = new Array();
	var blen = arIndexDir.length;
	var tx, ty, tpoints;
	var j, pos, spage, str, idx, arindi, tpath;
	for(var i = startidx;i <= finalidx;i++){
		tx = graphRect.x + Math.floor(i*pixelPerDay);
		ty = (arDayTotal[i] == undefined) ? graphRect.bottom : graphRect.bottom - Math.floor(distOfUnit*arDayTotal[i]);

		if(i == startidx) tpoints = "M " + tx + " " + ty;
		else tpoints += " L " + tx + " " + ty;

		tpath = new Array();
		if(arDayIndiv[i] != undefined){
			arindi = arDayIndiv[i].split("|");
			for(j = 0;j < arindi.length-1;j++){
				str = arindi[j];
				pos = str.indexOf(":");
				if(pos == -1) continue;

				spage = str.substring(0, pos);
				idx = arIndexDir.indexOf(spage);
				if(idx == -1) continue;
				tpath[idx] = parseInt(str.substring(pos+1));
			}
		}

		if(i == startidx){
			for(j = 0;j < blen;j++){
				ty = (tpath[j] == undefined) ? graphRect.bottom : graphRect.bottom - Math.floor(distOfUnit*tpath[j]);
				arIndexPaths[j] += "M " + tx + " " + ty;
			}
		}
		else{
			for(j = 0;j < blen;j++){
				ty = (tpath[j] == undefined) ? graphRect.bottom : graphRect.bottom - Math.floor(distOfUnit*tpath[j]);
				arIndexPaths[j] += " L " + tx + " " + ty;
			}
		}
	}

	var interObj = document.getElementById("interArea");
	var pathObj = document.createElementNS("http://www.w3.org/2000/svg","path");
	pathObj.setAttribute("id", "inter0");
	pathObj.setAttribute("visibility", "visible");
	pathObj.setAttribute("d", tpoints);
	pathObj.setAttribute("class", "interline");
	pathObj.setAttribute("stroke", arIndexColor[0]);
	interObj.appendChild(pathObj);

	for(j = 0;j < blen;j++){
		pathObj = document.createElementNS("http://www.w3.org/2000/svg","path");
		pathObj.setAttribute("id", "inter"+(j+1));
		pathObj.setAttribute("visibility", "visible");
		pathObj.setAttribute("d", arIndexPaths[j]);
		pathObj.setAttribute("class", "interline");
		pathObj.setAttribute("stroke", arIndexColor[j+1]);
		interObj.appendChild(pathObj);
	}
}

/* Month */
function viewMonth(n){
	currMode = "month";
	currIndex = 0;

	document.getElementById("monthtitle").textContent = currYear + "년 " + (n+1) + "월 일별 접속수";
	if(document.getElementById("monthArea").getAttribute("visibility") == "hidden"){
		document.getElementById("monthArea").setAttribute("visibility","visible");
	}

	if(monthXY == false){
		setXaxisMonth();
		setYaxisMonth();
		monthTrX = 20;
		monthTrY = 35;
	}

	if(currMonth == n) return;

	setInterAreaMonth(-1, n);
}
function setXaxisMonth(){
	var pixelPerMDay = monthRect.width / 31;
	var xaxis = document.getElementById("xAxisMonth");
	var textObj, textNode, tx;
	for(var i = 0;i < 31;i++){
		tx = monthRect.x + 10 + i*pixelPerMDay;
		textObj = document.createElementNS("http://www.w3.org/2000/svg","text");
		textObj.setAttribute("x", tx);
		textObj.setAttribute("y", 290);
		textObj.setAttribute("class", "axislabelx");
		textObj.setAttribute("onclick", "viewDay("+(i+1)+")");
		textNode = document.createTextNode(i+1);
		textObj.appendChild(textNode);
		xaxis.appendChild(textObj);
	}
}
function setYaxisMonth(){
	var numOfScale = 4;
	var valPerMScale = Math.floor((totalMax-1)/numOfScale) + 1;
	var distOfMScale = monthRect.height / numOfScale;
	distOfMUnit = monthRect.height / (numOfScale*valPerMScale);

	var yaxis = document.getElementById("yAxisMonth");
	var ypos = monthRect.bottom - distOfMScale;
	var textObj, textNode, lineObj;
	for(var i = 0;i < numOfScale;i++){
		textObj = document.createElementNS("http://www.w3.org/2000/svg","text");
		textObj.setAttribute("x", monthRect.x-4);
		textObj.setAttribute("y", ypos+4);
		textObj.setAttribute("class", "axislabely");
		textNode = document.createTextNode((i+1)*valPerMScale);
		textObj.appendChild(textNode);
		yaxis.appendChild(textObj);

		lineObj = document.createElementNS("http://www.w3.org/2000/svg","line");
		lineObj.setAttribute("x1", monthRect.x);
		lineObj.setAttribute("y1", ypos);
		lineObj.setAttribute("x2", monthRect.width);
		lineObj.setAttribute("y2", ypos);
		lineObj.setAttribute("class", "assistline");
		yaxis.appendChild(lineObj);

		ypos -= distOfMScale;
	}
}
function setInterAreaMonth(cidx, mm){
	if(cidx != -1) currIndex = cidx;
	if(mm != -1) currMonth = mm;

	var idx = aridxDate(mm, 0);
	var pixelPerMDay = monthRect.width / 31;

	var interObj = document.getElementById("interMonth");
	nodes = interObj.childNodes;
	for(var i = nodes.length-1;i >= 0;i--){
		interObj.removeChild(nodes[i]);
	}

	var textObj, textNode, lineObj, tx, ypos, val;
	for(i = 0;i < 31;i++){
		val = get_monthValue(idx);
		if(val == -1){
			idx++;
			continue;
		}

		tx = monthRect.x + 10 + i*pixelPerMDay;
		ypos = monthRect.bottom - Math.floor(val*distOfMUnit);

		lineObj = document.createElementNS("http://www.w3.org/2000/svg","line");
		lineObj.setAttribute("x1", tx);
		lineObj.setAttribute("y1", ypos);
		lineObj.setAttribute("x2", tx);
		lineObj.setAttribute("y2", monthRect.bottom);
		lineObj.setAttribute("class", "monthline");
		lineObj.setAttribute("stroke", arIndexColor[currIndex]);
		interObj.appendChild(lineObj);

		textObj = document.createElementNS("http://www.w3.org/2000/svg","text");
		textObj.setAttribute("x", tx);
		textObj.setAttribute("y", ypos-3);
		textObj.setAttribute("class", "axislabelx");
		textNode = document.createTextNode(val);
		textObj.appendChild(textNode);
		interObj.appendChild(textObj);

		idx++;
	}
}
function get_monthValue(idx){
	if(currIndex == 0){
		if(arDayTotal[idx] == undefined) return -1;
		return arDayTotal[idx];
	}

	if(arDayIndiv[idx] == undefined) return -1;
	var cDir = arIndexDir[currIndex-1];
	var ar = arDayIndiv[idx].split("|");
	var str, pos, sdir, sval;
	var blen = ar.length - 1;
	for(var i = 0;i < blen;i++){
		str = ar[i];
		pos = str.indexOf(":");
		if(pos == -1) continue;
		sdir = str.substring(0, pos);

		if(sdir == cDir){
			return parseInt(str.substring(pos+1));
		}
	}
	return -1;
}
function month_close(){
	if(currMode != "month") return;
	currMode = "year";
	document.getElementById("monthArea").setAttribute("visibility","hidden");
}

function day_folder(){
	day_interRemove();

	document.getElementById("dayMenuBack").setAttribute("x", 265);

	var interObj = document.getElementById("interDay");
	var tdir, tconn, aw, ypos, rectObj, textObj;
	var alen = arIndexDir.length;
	for(var i = 0;i < alen;i++){
		tdir = arIndexDir[i];

		tconn = (arFolder[tdir] == undefined) ? 0 : arFolder[tdir];
		if(tconn == 0) aw = 2;
		else aw = 400 * tconn / dayMax;

		ypos = 50 + 15*i;

		rectObj = document.createElementNS("http://www.w3.org/2000/svg","rect");
		rectObj.setAttribute("x", 10);
		rectObj.setAttribute("y", ypos);
		rectObj.setAttribute("width", aw);
		rectObj.setAttribute("height", 13);
		rectObj.setAttribute("class", "dayrect");
		interObj.appendChild(rectObj);

		textObj = document.createElementNS("http://www.w3.org/2000/svg","text");
		textObj.setAttribute("x", 13);
		textObj.setAttribute("y", ypos+10);
		textObj.setAttribute("class","daytext");
		textNode = document.createTextNode(arIndexName[i]+" ["+tconn+"]");
		textObj.appendChild(textNode);
		interObj.appendChild(textObj);
	}
}
function day_time(){
	day_interRemove();

	if(timeParsed == false) parse_timeTable();
	document.getElementById("dayMenuBack").setAttribute("x", 345);

	var interObj = document.getElementById("interDay");
	var tconn, aw, ypos, rectObj, textObj;
	var alen = arTimeName.length;
	for(var i = 0;i < alen;i++){
		tconn = (arTimeCount[i] == undefined) ? 0 : arTimeCount[i];
		if(tconn == 0) aw = 2;
		else aw = 400 * tconn / dayMax;

		ypos = 50 + 15*i;

		rectObj = document.createElementNS("http://www.w3.org/2000/svg","rect");
		rectObj.setAttribute("x", 10);
		rectObj.setAttribute("y", ypos);
		rectObj.setAttribute("width", aw);
		rectObj.setAttribute("height", 13);
		rectObj.setAttribute("class", "dayrect");
		interObj.appendChild(rectObj);

		textObj = document.createElementNS("http://www.w3.org/2000/svg","text");
		textObj.setAttribute("x", 13);
		textObj.setAttribute("y", ypos+10);
		textObj.setAttribute("class","daytext");
		textNode = document.createTextNode(arTimeName[i]+" ["+tconn+"]");
		textObj.appendChild(textNode);
		interObj.appendChild(textObj);
	}
}
function parse_timeTable(){
	timeMax = 0;
	arTimeCount = new Array();
	arTimeName = new Array();

	for(var i = 0;i < 24;i++){
		arTimeCount[i] = 0;
		arTimeName[i] = digit2(i) + " ~ " + digit2(i+1);
	}

	var n, count;
	var alen = arTimeStr.length;
	for(i = 0;i < alen;i++){
		n = parseInt(arTimeStr[i].substring(0,2));					// 시간 가져오기
		count = arTimeCount[n];
		count++;
		arTimeCount[n] = count;
		if(count > timeMax) timeMax = count;
	}
	timeParsed = true;
}
function day_close(){
	if(currMode != "day") return;
	currMode = "month";
	document.getElementById("dayArea").setAttribute("visibility","hidden");
	day_interRemove();
	timeParsed = false;
}
function day_interRemove(){
	var interObj = document.getElementById("interDay");
	nodes = interObj.childNodes;
	for(var i = nodes.length-1;i >= 0;i--){
		interObj.removeChild(nodes[i]);
	}
}

function Rectangle(ax,ay,aw,ah) {
    this.x = ax;
    this.y = ay;
    this.width = aw;
    this.height = ah;
    this.right = ax + aw;
    this.bottom = ay + ah;
}
function Area(aw,ah) {
    this.width = aw;
    this.height = ah;
}
function aridxDate(mm, dd){
	var daysum = 0;
	for(var i = 0;i < mm;i++){
		daysum += dayOfMonth[i];
	}
	return (daysum + dd);
}
function digit2(n){
	if(n < 10) return "0"+n;
	return ""+n;
}

/* mouse event */
function indexback_down(e){
	downKind = 1;
	clickX = e.clientX;
	clickY = e.clientY;
}
function monthbar_down(e){
	downKind = 2;
	clickX = e.clientX;
	clickY = e.clientY;
}
function daybar_down(e){
	downKind = 3;
	clickX = e.clientX;
	clickY = e.clientY;
}
function mouseup(e){
	if(mouseDrag == true){
		if(downKind == 1){
			idxTrX += e.clientX - clickX;
			idxTrY += e.clientY - clickY;
		}
		else if(downKind == 2){
			monthTrX += e.clientX - clickX;
			monthTrY += e.clientY - clickY;
		}
		else if(downKind == 3){
			dayTrX += e.clientX - clickX;
			dayTrY += e.clientY - clickY;
		}
	}
	downKind = 0;
	mouseDrag = false;
}
function mousemove(e){
	var diffX, diffY;
	if(downKind == 1){
		diffX = e.clientX - clickX + idxTrX;
		diffY = e.clientY - clickY + idxTrY;

		if(diffX < 0) diffX = 0;
		else if(diffX+indexArea.width > svgWidth) diffX = svgWidth - indexArea.width;

		if(diffY < 0) diffY = 0;
		else if(diffY+indexArea.height > svgHeight) diffY = svgHeight - indexArea.height;

		document.getElementById("indexArea").setAttribute("transform","translate("+diffX+","+diffY+")");
		mouseDrag = true;
	}
	else if(downKind == 2){
		diffX = e.clientX - clickX + monthTrX;
		diffY = e.clientY - clickY + monthTrY;

		if(diffX < 0) diffX = 0;
		else if(diffX+600 > svgWidth) diffX = svgWidth - 600;

		if(diffY < 0) diffY = 0;
		else if(diffY+300 > svgHeight) diffY = svgHeight - 300;

		document.getElementById("monthArea").setAttribute("transform","translate("+diffX+","+diffY+")");
		mouseDrag = true;
	}
	else if(downKind == 3){
		diffX = e.clientX - clickX + dayTrX;
		diffY = e.clientY - clickY + dayTrY;

		if(diffX < 0) diffX = 0;
		else if(diffX+420 > svgWidth) diffX = svgWidth - 420;

		if(diffY < 0) diffY = 0;
		else if(diffY+420 > svgHeight) diffY = svgHeight - 420;

		document.getElementById("dayArea").setAttribute("transform","translate("+diffX+","+diffY+")");
		mouseDrag = true;
	}
}
]]></script>

<defs>
	<clipPath id="indexlistClip">
		<rect x="0" y="0" rx="2" width="187" height="203" />
	</clipPath>
	<linearGradient id="monthTitle">
		<stop offset="0%" stop-color="#006699" stop-opacity="1" />
		<stop offset="100%" stop-color="#69ACCD" stop-opacity="1" />
	</linearGradient>
</defs>

<g id="xAxis">
	<line x1="30" y1="430" x2="655" y2="430" class="axisline" />
	<text x="645" y="441" class="daytext">월</text>
</g>
<g id="yAxis">
	<line x1="30" y1="20" x2="30" y2="430" class="axisline" />
</g>
<g id="interArea">
</g>

<g id="monthArea" transform="translate(20, 35)" visibility="hidden">
	<rect x="0" y="0" width="600" height="300" fill="#EDEDED" stroke="#666666" stroke-width="1"/>
	<rect x="2" y="2" width="596" height="19" id="monthtitlebar" fill="url(#monthTitle)"  onmousedown="monthbar_down(evt)" />
	<text x="300" y="14" id="monthtitle">일별 접속수</text>
	<image id="monthCloseBtn" x="582" y="6" width="9" height="9" xlink:href="./pix/conngr_close.png" onclick="month_close()" style="cursor:pointer;"/>

	<!-- rectangle(20, 35, 565, 245) -->
	<g id="xAxisMonth">
		<line x1="20" y1="280" x2="585" y2="280" class="axisline" />
	</g>
	<g id="yAxisMonth">
		<line x1="20" y1="35" x2="20" y2="280" class="axisline" />
	</g>
	<g id="interMonth">
	</g>
</g>

<!-- rectangle(0, 0, 190, 205) -->
<g id="indexArea" transform="translate(40,1)">
	<!-- background & button -->
	<rect id="indexBack" x="0" y="0" rx="2" width="190" height="203" fill="#FBFBFB" fill-opacity="0.6" stroke="#444444" onmousedown="indexback_down(evt)" />
	<image id="indexBtn" x="170" y="3" width="11" height="11" xlink:href="./pix/conngr_fold.png" onclick="index_fold()" style="cursor:pointer;" />
	<text id="indexLegendText" x="10" y="14" class="indextext" visibility="hidden">범례</text>

	<!-- list -->
	<g id="indexlist" class="indexfill" visibility="visible" clip-path="url(#indexlistClip)">
		<rect x="10" y="12" width="30" height="5" fill="#ff0000" />
		<text x="45" y="18" class="indextext" onclick="index_click(0)">최초</text>
	</g>

	<g id="indexPaging" visibility="visible">
		<rect id="indexPagingBack" x="3" y="185" width="184" height="15" fill="#eeeeee" />
		<text id="indexPagingText" x="95" y="196" class="indexpagingtext"></text>
	</g>
</g>

<!-- rectangle(0, 0, 420, 420) -->
<g id="dayArea" transform="translate(200,1)" visibility="hidden">
	<rect x="0" y="0" width="420" height="420" fill="#EDEDED" stroke="#444444" stroke-width="1"/>
	<rect x="2" y="2" width="416" height="19" id="daytitlebar" fill="url(#monthTitle)"  onmousedown="daybar_down(evt)" />
	<text x="210" y="14" id="daytitle">2003년 5월 30일</text>
	<image id="dayCloseBtn" x="402" y="6" width="9" height="9" xlink:href="./pix/conngr_close.png" onclick="day_close()" style="cursor:pointer;"/>

	<g id="dayMenu">
		<rect id="dayMenuBack" x="265" y="26" width="70" height="17" fill="#CCCCCC"/>
		<text x="270" y="38" class="daymenu" onclick="day_folder()">폴더별 접속</text>
		<text x="350" y="38" class="daymenu" onclick="day_time()">시간별 접속</text>
	</g>

	<g id="interDay">
	</g>
</g>

</svg>
