<svg width="144" height="120" viewBox="0 0 144 120" fill="none" xmlns="http://www.w3.org/2000/svg">
<path d="M14.5 17L9.5 12L14.5 7" stroke="#0069B6" stroke-width="2.5" stroke-linecap="round" stroke-linejoin="round"/>
<path d="M33.5 7L38.5 12L33.5 17" stroke="#0069B6" stroke-width="2.5" stroke-linecap="round" stroke-linejoin="round"/>
<path d="M60 4.79999L60 19.2M67.2 12L52.8 12" stroke="#0069B6" stroke-width="2.5" stroke-linecap="round"/>
<path d="M79.7978 17.244V6.75598M88.2022 17.244V6.75598" stroke="#0069B6" stroke-width="2.5" stroke-linecap="round" stroke-linejoin="round"/>
<path d="M112.203 11.2524C113.164 11.7881 113.167 12.4621 112.203 13.0678L104.747 18.096C103.81 18.596 103.174 18.3008 103.107 17.219L103.075 6.69501C103.054 5.69858 103.875 5.41705 104.657 5.89479L112.203 11.2524Z" fill="#0069B6"/>
<mask id="path-6-inside-1_22_875" fill="white">
<path fill-rule="evenodd" clip-rule="evenodd" d="M128.395 10.1353C129.775 10.1353 130.895 9.01597 130.895 7.63525C130.895 6.25454 129.775 5.13525 128.395 5.13525C127.014 5.13525 125.895 6.25454 125.895 7.63525C125.895 9.01597 127.014 10.1353 128.395 10.1353ZM128.395 18.1352C129.775 18.1352 130.895 17.0159 130.895 15.6352C130.895 14.2545 129.775 13.1352 128.395 13.1352C127.014 13.1352 125.895 14.2545 125.895 15.6352C125.895 17.0159 127.014 18.1352 128.395 18.1352ZM138.895 7.63525C138.895 9.01597 137.775 10.1353 136.395 10.1353C135.014 10.1353 133.895 9.01597 133.895 7.63525C133.895 6.25454 135.014 5.13525 136.395 5.13525C137.775 5.13525 138.895 6.25454 138.895 7.63525ZM136.395 18.1352C137.775 18.1352 138.895 17.0159 138.895 15.6352C138.895 14.2545 137.775 13.1352 136.395 13.1352C135.014 13.1352 133.895 14.2545 133.895 15.6352C133.895 17.0159 135.014 18.1352 136.395 18.1352Z"/>
</mask>
<path fill-rule="evenodd" clip-rule="evenodd" d="M128.395 10.1353C129.775 10.1353 130.895 9.01597 130.895 7.63525C130.895 6.25454 129.775 5.13525 128.395 5.13525C127.014 5.13525 125.895 6.25454 125.895 7.63525C125.895 9.01597 127.014 10.1353 128.395 10.1353ZM128.395 18.1352C129.775 18.1352 130.895 17.0159 130.895 15.6352C130.895 14.2545 129.775 13.1352 128.395 13.1352C127.014 13.1352 125.895 14.2545 125.895 15.6352C125.895 17.0159 127.014 18.1352 128.395 18.1352ZM138.895 7.63525C138.895 9.01597 137.775 10.1353 136.395 10.1353C135.014 10.1353 133.895 9.01597 133.895 7.63525C133.895 6.25454 135.014 5.13525 136.395 5.13525C137.775 5.13525 138.895 6.25454 138.895 7.63525ZM136.395 18.1352C137.775 18.1352 138.895 17.0159 138.895 15.6352C138.895 14.2545 137.775 13.1352 136.395 13.1352C135.014 13.1352 133.895 14.2545 133.895 15.6352C133.895 17.0159 135.014 18.1352 136.395 18.1352Z" fill="#0069B6"/>
<path d="M129.895 7.63525C129.895 8.46368 129.223 9.13525 128.395 9.13525V11.1353C130.328 11.1353 131.895 9.56825 131.895 7.63525H129.895ZM128.395 6.13525C129.223 6.13525 129.895 6.80683 129.895 7.63525H131.895C131.895 5.70226 130.328 4.13525 128.395 4.13525V6.13525ZM126.895 7.63525C126.895 6.80683 127.566 6.13525 128.395 6.13525V4.13525C126.462 4.13525 124.895 5.70226 124.895 7.63525H126.895ZM128.395 9.13525C127.566 9.13525 126.895 8.46368 126.895 7.63525H124.895C124.895 9.56825 126.462 11.1353 128.395 11.1353V9.13525ZM129.895 15.6352C129.895 16.4637 129.223 17.1352 128.395 17.1352V19.1352C130.328 19.1352 131.895 17.5682 131.895 15.6352H129.895ZM128.395 14.1352C129.223 14.1352 129.895 14.8068 129.895 15.6352H131.895C131.895 13.7022 130.328 12.1352 128.395 12.1352V14.1352ZM126.895 15.6352C126.895 14.8068 127.566 14.1352 128.395 14.1352V12.1352C126.462 12.1352 124.895 13.7022 124.895 15.6352H126.895ZM128.395 17.1352C127.566 17.1352 126.895 16.4637 126.895 15.6352H124.895C124.895 17.5682 126.462 19.1352 128.395 19.1352V17.1352ZM136.395 11.1353C138.328 11.1353 139.895 9.56825 139.895 7.63525H137.895C137.895 8.46368 137.223 9.13525 136.395 9.13525V11.1353ZM132.895 7.63525C132.895 9.56825 134.462 11.1353 136.395 11.1353V9.13525C135.566 9.13525 134.895 8.46368 134.895 7.63525H132.895ZM136.395 4.13525C134.462 4.13525 132.895 5.70226 132.895 7.63525H134.895C134.895 6.80683 135.566 6.13525 136.395 6.13525V4.13525ZM139.895 7.63525C139.895 5.70226 138.328 4.13525 136.395 4.13525V6.13525C137.223 6.13525 137.895 6.80683 137.895 7.63525H139.895ZM137.895 15.6352C137.895 16.4637 137.223 17.1352 136.395 17.1352V19.1352C138.328 19.1352 139.895 17.5682 139.895 15.6352H137.895ZM136.395 14.1352C137.223 14.1352 137.895 14.8068 137.895 15.6352H139.895C139.895 13.7022 138.328 12.1352 136.395 12.1352V14.1352ZM134.895 15.6352C134.895 14.8068 135.566 14.1352 136.395 14.1352V12.1352C134.462 12.1352 132.895 13.7022 132.895 15.6352H134.895ZM136.395 17.1352C135.566 17.1352 134.895 16.4637 134.895 15.6352H132.895C132.895 17.5682 134.462 19.1352 136.395 19.1352V17.1352Z" fill="#0069B6" mask="url(#path-6-inside-1_22_875)"/>
<path d="M14.5 41L9.5 36L14.5 31" stroke="#333333" stroke-width="2.5" stroke-linecap="round" stroke-linejoin="round"/>
<path d="M33.5 31L38.5 36L33.5 41" stroke="#333333" stroke-width="2.5" stroke-linecap="round" stroke-linejoin="round"/>
<path d="M60 28.8L60 43.2M67.2 36L52.8 36" stroke="#333333" stroke-width="2.5" stroke-linecap="round"/>
<path d="M79.7978 41.244V30.756M88.2022 41.244V30.756" stroke="#333333" stroke-width="2.5" stroke-linecap="round" stroke-linejoin="round"/>
<path d="M112.203 35.2524C113.164 35.7881 113.167 36.4621 112.203 37.0678L104.747 42.096C103.81 42.596 103.174 42.3008 103.107 41.219L103.075 30.695C103.054 29.6986 103.875 29.417 104.657 29.8948L112.203 35.2524Z" fill="#333333"/>
<mask id="path-13-inside-2_22_875" fill="white">
<path fill-rule="evenodd" clip-rule="evenodd" d="M128.395 34.1353C129.775 34.1353 130.895 33.016 130.895 31.6353C130.895 30.2545 129.775 29.1353 128.395 29.1353C127.014 29.1353 125.895 30.2545 125.895 31.6353C125.895 33.016 127.014 34.1353 128.395 34.1353ZM128.395 42.1352C129.775 42.1352 130.895 41.0159 130.895 39.6352C130.895 38.2545 129.775 37.1352 128.395 37.1352C127.014 37.1352 125.895 38.2545 125.895 39.6352C125.895 41.0159 127.014 42.1352 128.395 42.1352ZM138.895 31.6353C138.895 33.016 137.775 34.1353 136.395 34.1353C135.014 34.1353 133.895 33.016 133.895 31.6353C133.895 30.2545 135.014 29.1353 136.395 29.1353C137.775 29.1353 138.895 30.2545 138.895 31.6353ZM136.395 42.1352C137.775 42.1352 138.895 41.0159 138.895 39.6352C138.895 38.2545 137.775 37.1352 136.395 37.1352C135.014 37.1352 133.895 38.2545 133.895 39.6352C133.895 41.0159 135.014 42.1352 136.395 42.1352Z"/>
</mask>
<path fill-rule="evenodd" clip-rule="evenodd" d="M128.395 34.1353C129.775 34.1353 130.895 33.016 130.895 31.6353C130.895 30.2545 129.775 29.1353 128.395 29.1353C127.014 29.1353 125.895 30.2545 125.895 31.6353C125.895 33.016 127.014 34.1353 128.395 34.1353ZM128.395 42.1352C129.775 42.1352 130.895 41.0159 130.895 39.6352C130.895 38.2545 129.775 37.1352 128.395 37.1352C127.014 37.1352 125.895 38.2545 125.895 39.6352C125.895 41.0159 127.014 42.1352 128.395 42.1352ZM138.895 31.6353C138.895 33.016 137.775 34.1353 136.395 34.1353C135.014 34.1353 133.895 33.016 133.895 31.6353C133.895 30.2545 135.014 29.1353 136.395 29.1353C137.775 29.1353 138.895 30.2545 138.895 31.6353ZM136.395 42.1352C137.775 42.1352 138.895 41.0159 138.895 39.6352C138.895 38.2545 137.775 37.1352 136.395 37.1352C135.014 37.1352 133.895 38.2545 133.895 39.6352C133.895 41.0159 135.014 42.1352 136.395 42.1352Z" fill="#222222"/>
<path d="M129.895 31.6353C129.895 32.4637 129.223 33.1353 128.395 33.1353V35.1353C130.328 35.1353 131.895 33.5683 131.895 31.6353H129.895ZM128.395 30.1353C129.223 30.1353 129.895 30.8068 129.895 31.6353H131.895C131.895 29.7023 130.328 28.1353 128.395 28.1353V30.1353ZM126.895 31.6353C126.895 30.8068 127.566 30.1353 128.395 30.1353V28.1353C126.462 28.1353 124.895 29.7023 124.895 31.6353H126.895ZM128.395 33.1353C127.566 33.1353 126.895 32.4637 126.895 31.6353H124.895C124.895 33.5683 126.462 35.1353 128.395 35.1353V33.1353ZM129.895 39.6352C129.895 40.4637 129.223 41.1352 128.395 41.1352V43.1352C130.328 43.1352 131.895 41.5682 131.895 39.6352H129.895ZM128.395 38.1352C129.223 38.1352 129.895 38.8068 129.895 39.6352H131.895C131.895 37.7022 130.328 36.1352 128.395 36.1352V38.1352ZM126.895 39.6352C126.895 38.8068 127.566 38.1352 128.395 38.1352V36.1352C126.462 36.1352 124.895 37.7022 124.895 39.6352H126.895ZM128.395 41.1352C127.566 41.1352 126.895 40.4637 126.895 39.6352H124.895C124.895 41.5682 126.462 43.1352 128.395 43.1352V41.1352ZM136.395 35.1353C138.328 35.1353 139.895 33.5683 139.895 31.6353H137.895C137.895 32.4637 137.223 33.1353 136.395 33.1353V35.1353ZM132.895 31.6353C132.895 33.5683 134.462 35.1353 136.395 35.1353V33.1353C135.566 33.1353 134.895 32.4637 134.895 31.6353H132.895ZM136.395 28.1353C134.462 28.1353 132.895 29.7023 132.895 31.6353H134.895C134.895 30.8068 135.566 30.1353 136.395 30.1353V28.1353ZM139.895 31.6353C139.895 29.7023 138.328 28.1353 136.395 28.1353V30.1353C137.223 30.1353 137.895 30.8068 137.895 31.6353H139.895ZM137.895 39.6352C137.895 40.4637 137.223 41.1352 136.395 41.1352V43.1352C138.328 43.1352 139.895 41.5682 139.895 39.6352H137.895ZM136.395 38.1352C137.223 38.1352 137.895 38.8068 137.895 39.6352H139.895C139.895 37.7022 138.328 36.1352 136.395 36.1352V38.1352ZM134.895 39.6352C134.895 38.8068 135.566 38.1352 136.395 38.1352V36.1352C134.462 36.1352 132.895 37.7022 132.895 39.6352H134.895ZM136.395 41.1352C135.566 41.1352 134.895 40.4637 134.895 39.6352H132.895C132.895 41.5682 134.462 43.1352 136.395 43.1352V41.1352Z" fill="#222222" mask="url(#path-13-inside-2_22_875)"/>
<path d="M14.5 65L9.5 60L14.5 55" stroke="white" stroke-width="2.5" stroke-linecap="round" stroke-linejoin="round"/>
<path d="M33.5 55L38.5 60L33.5 65" stroke="white" stroke-width="2.5" stroke-linecap="round" stroke-linejoin="round"/>
<path d="M60 52.8L60 60L60 67.2M67.2 60L52.8 60" stroke="white" stroke-width="2" stroke-linecap="round"/>
<path d="M79.7978 65.244V54.756M88.2022 65.244V54.756" stroke="white" stroke-width="2.5" stroke-linecap="round" stroke-linejoin="round"/>
<path d="M112.203 59.2524C113.164 59.7881 113.167 60.4621 112.203 61.0678L104.747 66.096C103.81 66.596 103.174 66.3008 103.107 65.219L103.075 54.695C103.054 53.6986 103.875 53.417 104.657 53.8948L112.203 59.2524Z" fill="white"/>
<mask id="path-20-inside-3_22_875" fill="white">
<path fill-rule="evenodd" clip-rule="evenodd" d="M128.395 58.1353C129.775 58.1353 130.895 57.016 130.895 55.6353C130.895 54.2545 129.775 53.1353 128.395 53.1353C127.014 53.1353 125.895 54.2545 125.895 55.6353C125.895 57.016 127.014 58.1353 128.395 58.1353ZM128.395 66.1352C129.775 66.1352 130.895 65.0159 130.895 63.6352C130.895 62.2545 129.775 61.1352 128.395 61.1352C127.014 61.1352 125.895 62.2545 125.895 63.6352C125.895 65.0159 127.014 66.1352 128.395 66.1352ZM138.895 55.6353C138.895 57.016 137.775 58.1353 136.395 58.1353C135.014 58.1353 133.895 57.016 133.895 55.6353C133.895 54.2545 135.014 53.1353 136.395 53.1353C137.775 53.1353 138.895 54.2545 138.895 55.6353ZM136.395 66.1352C137.775 66.1352 138.895 65.0159 138.895 63.6352C138.895 62.2545 137.775 61.1352 136.395 61.1352C135.014 61.1352 133.895 62.2545 133.895 63.6352C133.895 65.0159 135.014 66.1352 136.395 66.1352Z"/>
</mask>
<path fill-rule="evenodd" clip-rule="evenodd" d="M128.395 58.1353C129.775 58.1353 130.895 57.016 130.895 55.6353C130.895 54.2545 129.775 53.1353 128.395 53.1353C127.014 53.1353 125.895 54.2545 125.895 55.6353C125.895 57.016 127.014 58.1353 128.395 58.1353ZM128.395 66.1352C129.775 66.1352 130.895 65.0159 130.895 63.6352C130.895 62.2545 129.775 61.1352 128.395 61.1352C127.014 61.1352 125.895 62.2545 125.895 63.6352C125.895 65.0159 127.014 66.1352 128.395 66.1352ZM138.895 55.6353C138.895 57.016 137.775 58.1353 136.395 58.1353C135.014 58.1353 133.895 57.016 133.895 55.6353C133.895 54.2545 135.014 53.1353 136.395 53.1353C137.775 53.1353 138.895 54.2545 138.895 55.6353ZM136.395 66.1352C137.775 66.1352 138.895 65.0159 138.895 63.6352C138.895 62.2545 137.775 61.1352 136.395 61.1352C135.014 61.1352 133.895 62.2545 133.895 63.6352C133.895 65.0159 135.014 66.1352 136.395 66.1352Z" fill="white"/>
<path d="M129.895 55.6353C129.895 56.4637 129.223 57.1353 128.395 57.1353V59.1353C130.328 59.1353 131.895 57.5683 131.895 55.6353H129.895ZM128.395 54.1353C129.223 54.1353 129.895 54.8068 129.895 55.6353H131.895C131.895 53.7023 130.328 52.1353 128.395 52.1353V54.1353ZM126.895 55.6353C126.895 54.8068 127.566 54.1353 128.395 54.1353V52.1353C126.462 52.1353 124.895 53.7023 124.895 55.6353H126.895ZM128.395 57.1353C127.566 57.1353 126.895 56.4637 126.895 55.6353H124.895C124.895 57.5683 126.462 59.1353 128.395 59.1353V57.1353ZM129.895 63.6352C129.895 64.4637 129.223 65.1352 128.395 65.1352V67.1352C130.328 67.1352 131.895 65.5682 131.895 63.6352H129.895ZM128.395 62.1352C129.223 62.1352 129.895 62.8068 129.895 63.6352H131.895C131.895 61.7022 130.328 60.1352 128.395 60.1352V62.1352ZM126.895 63.6352C126.895 62.8068 127.566 62.1352 128.395 62.1352V60.1352C126.462 60.1352 124.895 61.7022 124.895 63.6352H126.895ZM128.395 65.1352C127.566 65.1352 126.895 64.4637 126.895 63.6352H124.895C124.895 65.5682 126.462 67.1352 128.395 67.1352V65.1352ZM136.395 59.1353C138.328 59.1353 139.895 57.5683 139.895 55.6353H137.895C137.895 56.4637 137.223 57.1353 136.395 57.1353V59.1353ZM132.895 55.6353C132.895 57.5683 134.462 59.1353 136.395 59.1353V57.1353C135.566 57.1353 134.895 56.4637 134.895 55.6353H132.895ZM136.395 52.1353C134.462 52.1353 132.895 53.7023 132.895 55.6353H134.895C134.895 54.8068 135.566 54.1353 136.395 54.1353V52.1353ZM139.895 55.6353C139.895 53.7023 138.328 52.1353 136.395 52.1353V54.1353C137.223 54.1353 137.895 54.8068 137.895 55.6353H139.895ZM137.895 63.6352C137.895 64.4637 137.223 65.1352 136.395 65.1352V67.1352C138.328 67.1352 139.895 65.5682 139.895 63.6352H137.895ZM136.395 62.1352C137.223 62.1352 137.895 62.8068 137.895 63.6352H139.895C139.895 61.7022 138.328 60.1352 136.395 60.1352V62.1352ZM134.895 63.6352C134.895 62.8068 135.566 62.1352 136.395 62.1352V60.1352C134.462 60.1352 132.895 61.7022 132.895 63.6352H134.895ZM136.395 65.1352C135.566 65.1352 134.895 64.4637 134.895 63.6352H132.895C132.895 65.5682 134.462 67.1352 136.395 67.1352V65.1352Z" fill="white" mask="url(#path-20-inside-3_22_875)"/>
<path d="M14.5 89L9.5 84L14.5 79" stroke="#888888" stroke-width="2.5" stroke-linecap="round" stroke-linejoin="round"/>
<path d="M33.5 79L38.5 84L33.5 89" stroke="#888888" stroke-width="2.5" stroke-linecap="round" stroke-linejoin="round"/>
<path d="M65 86L59.9992 81.42L55 86" stroke="#009DA5" stroke-width="2" stroke-linecap="round" stroke-linejoin="round"/>
<path d="M89 86.58L83.9992 82L79 86.58" stroke="white" stroke-width="2" stroke-linecap="round" stroke-linejoin="round"/>
<path d="M113 86.58L107.999 82L103 86.58" stroke="#4E5D73" stroke-width="2" stroke-linecap="round" stroke-linejoin="round"/>
<path d="M137 86.58L131.999 82L127 86.58" stroke="#333333" stroke-width="2" stroke-linecap="round" stroke-linejoin="round"/>
<path d="M14.5 113L9.5 108L14.5 103" stroke="#009DA5" stroke-width="2.5" stroke-linecap="round" stroke-linejoin="round"/>
<path d="M33.5 103L38.5 108L33.5 113" stroke="#009DA5" stroke-width="2.5" stroke-linecap="round" stroke-linejoin="round"/>
<path d="M55 106L60.0008 110.58L65 106" stroke="#009DA5" stroke-width="2" stroke-linecap="round" stroke-linejoin="round"/>
<path d="M79 106L84.0008 110.58L89 106" stroke="white" stroke-width="2" stroke-linecap="round" stroke-linejoin="round"/>
<path d="M103 106L108.001 110.58L113 106" stroke="#4E5D73" stroke-width="2" stroke-linecap="round" stroke-linejoin="round"/>
<path d="M127 106L132.001 110.58L137 106" stroke="#333333" stroke-width="2" stroke-linecap="round" stroke-linejoin="round"/>
</svg>
